20

65 62
1
t 44 44 s
200 89

100 79
3
h 93 14 s
r 1 1 s
f 55 58 w
87 91

3 96
9
r 0 90 w
t 0 78 w
h 0 90 e
h 0 75 w
r 1 53 s
r 0 93 s
t 2 40 e
r 2 11 n
t 0 46 w
120 99

61 5
11
f 37 1 w
t 45 3 w
r 13 4 w
h 24 0 w
f 42 3 s
t 32 1 n
h 58 1 s
r 13 3 e
h 57 3 n
f 35 0 s
r 3 3 e
85 80

10 76
7
f 0 5 w
t 8 40 e
t 2 57 e
t 8 27 w
f 6 44 e
h 7 73 e
h 5 34 w
92 81

76 45
10
h 23 17 n
h 74 33 n
t 46 25 w
h 58 29 e
h 48 26 n
t 15 10 e
t 46 4 s
t 3 18 e
t 6 0 w
t 8 38 s
346 92

2 26
5
h 1 17 s
f 1 0 w
r 1 14 s
f 1 4 e
t 0 21 s
369 17

10 47
16
t 8 19 e
t 1 17 s
h 0 42 e
h 5 6 w
f 8 26 s
t 2 33 n
r 0 21 n
h 4 3 w
h 4 22 e
t 5 5 w
h 3 19 e
h 9 14 e
r 2 21 n
f 1 26 s
t 3 42 s
t 4 15 s
389 81

100 78
11
t 77 42 n
f 25 50 w
t 90 47 e
f 24 72 w
r 43 35 s
t 20 73 s
h 23 57 s
r 70 28 n
t 59 54 w
r 43 48 n
t 0 59 e
164 71

94 83
18
r 37 47 s
r 26 49 e
t 3 63 s
t 12 48 w
h 6 11 w
t 80 20 w
t 67 80 s
h 72 62 s
h 48 36 s
f 11 35 s
t 73 60 s
t 22 58 w
t 58 3 e
f 20 79 w
f 3 47 s
r 85 20 n
f 77 31 s
r 53 34 s
286 51

79 41
18
f 33 37 e
h 22 8 n
r 30 6 n
r 64 28 n
r 38 2 e
r 1 3 e
h 39 38 s
f 30 16 n
t 47 4 s
h 73 0 e
h 41 37 n
f 36 9 n
r 35 2 w
h 37 21 s
f 77 31 n
t 2 38 s
h 23 9 n
h 44 40 w
494 20

93 22
15
f 3 7 w
h 22 1 e
t 63 6 s
t 63 16 w
t 51 15 w
f 2 12 s
r 70 10 s
f 38 17 e
t 74 8 e
t 70 2 w
h 78 14 e
h 31 12 s
h 68 20 e
f 69 11 s
t 23 0 w
468 47

21 43
11
t 15 23 e
r 16 1 n
t 3 9 s
t 1 4 e
h 14 13 w
t 3 26 e
r 5 37 n
f 7 29 w
h 3 22 w
r 12 21 w
t 11 3 s
358 80

44 92
1
f 3 70 s
80 58

46 95
1
f 2 76 e
442 78

80 72
18
f 22 66 s
h 15 35 s
r 36 18 w
t 0 8 n
h 38 24 n
r 2 32 w
f 46 28 w
t 64 18 e
t 43 51 s
f 15 7 w
h 58 53 n
t 79 33 s
r 0 70 w
t 1 42 w
f 58 2 n
t 0 24 s
f 27 39 s
r 49 39 e
281 95

94 80
18
h 56 26 e
t 52 5 n
r 69 61 n
r 42 36 s
h 10 26 n
f 39 0 s
r 67 35 n
t 89 25 e
t 52 54 w
f 39 58 s
r 26 28 w
t 27 49 w
h 78 47 n
f 57 7 n
h 66 3 n
f 31 53 s
f 53 8 e
f 25 7 w
128 92

69 28
12
r 24 22 w
f 16 27 n
r 22 15 w
h 61 8 n
f 1 8 n
h 29 2 n
h 12 4 w
r 45 19 w
h 54 19 w
r 23 11 s
r 15 15 s
r 21 17 w
255 64

16 38
11
r 5 5 e
f 4 25 s
r 0 27 w
r 9 18 n
r 9 26 s
h 6 26 n
r 12 1 e
r 2 15 e
t 13 5 w
r 8 35 n
h 6 26 w
232 67

51 10
14
h 33 3 w
h 48 6 s
f 49 1 w
r 30 4 s
h 1 3 w
t 17 7 s
f 46 1 n
h 8 9 e
h 15 1 e
r 22 5 e
t 15 1 n
r 29 6 e
h 9 9 e
r 5 0 n
471 61
