24

4 8
7
r 0 6 w
t 3 0 s
h 0 3 w
f 1 0 s
f 1 1 e
f 2 5 n
r 1 5 e
931 135

2 8
3
t 0 1 e
t 1 7 n
h 0 1 w
1876 151

9 10
1
t 7 7 w
897 86

6 3
6
h 0 0 w
f 3 1 w
f 0 2 n
r 2 0 w
f 3 2 e
f 4 0 n
1948 61

2 1
2
h 1 0 s
h 0 0 e
48 31

5 4
9
t 4 3 w
r 1 1 e
t 3 2 n
f 1 3 e
f 4 2 e
f 2 2 w
r 0 3 e
r 1 1 n
t 4 2 n
122 101

4 2
9
f 2 1 e
h 1 1 w
r 0 1 n
r 0 0 e
t 3 1 n
r 3 0 e
r 3 1 w
r 3 0 e
f 1 1 e
787 152

9 6
9
h 2 3 n
f 6 0 w
t 1 5 w
r 5 0 n
h 7 2 e
f 8 2 e
f 3 0 w
r 3 1 n
r 8 1 n
874 199

6 4
1
r 2 2 s
1586 125

6 5
10
r 3 4 s
f 1 1 s
t 3 1 w
t 1 2 n
f 2 3 n
t 1 4 w
r 4 1 w
h 1 3 e
r 5 3 n
f 1 2 e
280 142

6 7
7
r 4 0 n
f 5 6 w
h 4 4 n
t 0 3 w
r 4 2 s
f 2 4 e
r 0 1 e
920 121

10 10
7
h 4 0 n
h 2 0 e
f 4 3 s
r 3 3 n
r 6 9 w
f 1 9 e
t 5 3 w
893 27

3 5
2
h 1 4 w
r 0 4 w
747 35

1 6
3
t 0 2 e
r 0 0 w
t 0 1 e
635 129

10 6
8
r 4 3 e
f 6 4 e
t 0 0 n
r 3 4 w
h 2 3 n
r 4 1 e
r 1 0 n
h 3 4 s
851 161

7 6
3
t 1 5 s
f 5 5 n
r 2 4 w
948 16

3 10
2
r 0 9 w
h 2 4 n
1659 180

10 2
9
h 1 1 e
r 7 1 w
r 2 1 s
f 3 1 w
f 2 0 w
r 6 1 n
t 3 1 n
t 3 1 n
t 5 1 w
1715 179

4 4
8
h 1 0 s
t 3 0 w
t 1 1 s
r 2 3 e
f 3 2 n
h 1 0 w
f 0 2 w
r 1 1 e
380 52

6 6
1
f 4 3 n
141 145

8 1
10
t 4 0 e
r 6 0 s
t 5 0 w
f 4 0 w
h 3 0 w
h 6 0 e
h 1 0 s
r 7 0 s
h 3 0 w
h 6 0 w
449 55

4 4
8
h 3 1 s
f 2 0 s
h 3 3 w
f 3 2 s
r 1 1 s
t 1 2 e
r 3 3 s
f 2 3 w
1604 106

10 9
1
f 9 0 s
1946 69

2 10
2
h 0 2 e
r 0 9 e
100 8
