20

5 9
5
f 0 6 e
r 4 6 e
r 4 0 e
h 3 7 e
r 3 0 n
136 17

36 34
10
f 13 21 s
h 6 23 e
r 12 9 s
r 32 29 e
t 23 10 n
f 1 25 n
t 24 30 s
t 1 15 s
h 12 29 e
t 8 19 n
38 13

40 41
10
h 31 37 w
h 32 33 w
r 31 21 s
t 0 21 e
f 15 29 n
h 1 8 w
h 35 0 s
f 18 20 n
t 12 24 n
f 12 12 s
130 13

24 36
6
h 2 33 n
t 14 4 n
r 16 16 e
h 3 22 s
r 0 23 s
r 16 35 n
74 13

42 21
7
t 40 0 n
h 35 11 s
t 10 11 w
r 32 18 n
t 41 3 n
r 1 11 n
r 11 4 n
99 11

23 42
7
t 0 12 s
f 16 11 n
t 3 40 s
h 11 7 e
r 16 20 s
h 9 32 s
t 4 32 s
41 17

9 5
2
f 0 4 n
t 1 4 w
191 19

20 27
10
f 2 0 n
t 1 10 w
t 15 7 w
r 14 15 w
t 17 13 w
h 2 10 n
f 16 22 s
f 6 24 s
h 19 26 e
t 8 7 n
172 5

26 37
2
f 8 12 n
r 19 8 w
43 20

32 33
8
t 9 0 n
h 11 27 n
t 5 19 n
f 18 24 e
r 30 27 n
t 10 11 s
t 1 21 w
t 12 18 s
96 9

16 34
5
f 5 17 e
r 1 32 w
r 3 14 e
r 13 32 w
h 7 19 s
178 11

47 44
5
f 15 2 s
f 3 25 s
h 35 34 e
h 41 29 n
f 39 1 w
192 20

18 35
10
f 8 7 n
t 10 19 s
r 16 26 n
t 3 23 n
h 3 26 n
h 6 19 e
r 9 8 w
f 16 9 e
r 12 7 s
t 8 14 s
152 18

38 49
2
r 22 46 e
r 13 10 s
132 16

43 22
10
r 42 7 w
h 20 14 s
t 30 6 e
h 6 6 w
r 22 10 w
f 14 5 s
f 16 15 w
t 5 3 w
f 3 11 s
h 14 3 n
86 13

32 22
10
t 25 17 n
t 19 11 e
r 9 18 w
f 31 7 e
t 7 17 w
f 9 20 n
f 28 16 e
h 21 6 s
h 14 17 w
h 18 3 s
89 13

42 19
10
t 31 12 n
f 3 12 w
f 36 7 s
t 2 7 w
h 14 3 w
r 30 10 w
f 4 15 n
t 0 3 e
r 31 0 n
h 31 9 s
167 8

40 37
3
f 4 22 n
r 10 28 e
h 19 7 e
91 8

16 10
6
t 1 4 s
h 2 5 e
h 12 8 s
f 3 9 e
f 9 8 e
h 14 2 s
42 19

42 14
10
f 16 6 n
t 37 9 s
f 6 11 s
r 16 3 e
f 3 7 n
r 9 6 w
r 14 1 s
f 12 13 w
h 18 5 e
r 3 4 s
97 10
